  {
    "workflows" : [
      {
        "workflowId" : 0,
        "title" : "Find Plan",
        "description" : "We take you through a simple set of questions based on your life stage, healthcare needs, and what you think you're looking for.  The more questions you answer, the better the results. You may skip to plans at any time.",
        "default" : true,
        "classOverride" : "find",
        "questionRefIds" : [ 0, 1, 5, 3, 2 ]
      },
      {
        "workflowId" : 1,
        "title" : "Build Plan",
        "description" : "We take you through a small set of questions based on your life stage, healthcare needs, and what you think you're looking for.  The more questions you answer, the better the results. You may skip to plans at any time.",
        "default" : false,
        "classOverride" : "build",
        "questionRefIds" : [ 0, 1, 3, 2, 4 ]
      },
      {
        "workflowId" : 2,
        "title" : "Browse",
        "description" : "Just browse",
        "subheading" : "Why?",
        "classOverride" : "browse",
        "default" : false,
        "questionRefIds" : [ ]
      },
    ],
    "questionCategories" : [
      {   
        "categoryId" : 0, 
        "title" : "Healthcare Needs",
        "description" : "You may add, remove, and customize healthcare needs and specific provider information.",
        "classOverride" : "shop-icon-needs"
      },
      {   
        "categoryId" : 1, 
        "title" : "Preferences",
        "description" : "Further refinement of your plan needs",
        "classOverride" : "shop-icon-preferences"
      }
    ],
    "questions" : [
      {   
        "questionId" : 0,
        "categoryRefId" : 0,
        "navText" : "Healthcare Usage", 
        "text" : "An important part of selecting a plan is understanding the costs associated with changing needs. You may further refine while you compare plans.  What level of care do you require?",
        "educationalContentBlock" : 
        "<div class=\"subheading info\">What does this do for me?</div>
          <div class=\"instructions\">Based on your usage, each plan will show you your expected costs.</div>
          <div class=\"subheading chart-heading\">Plan Costs</div>
          <div class=\"clearfix\">Insert Chart Here</div>",
        "displayType" : null,
        "widgetId" : "CostEstimator",
        "classOverride" : null ,
        "required" : true
      },
      {   
        "questionId" : 1,
        "categoryRefId" : 0,
        "navText" : "Provider Search", 
        "text" : "An important part of selecting a plan is understanding the costs associated with changing needs. You may further refine while you compare plans.  What level of care do you require?",
        "educationalContentBlock" : 
        "<div class=\"subheading info\">What does this do for me?</div>
          <div class=\"instructions\">Based on your usage, each plan will show you your expected costs.</div>
          <div class=\"subheading chart-heading\">Plan Costs</div>
          <div class=\"clearfix\">Insert Chart Here</div>",
        "displayType" : null,
        "widgetId" : "ProviderLookup",
        "classOverride" : null ,
        "required" : true
      },
      {
        "questionId" : 5,
        "categoryRefId" : 0,
        "navText" : "RX Needs", 
        "text" : "Do you have monthly prescriptions?",
        "educationalContentBlock" : 
          "<div class=\"subheading info\">What does this do for me?</div>
          <div class=\"instructions\">Prescription drug needs are an important aspect of your health.  Based on your usage, each plan will show you your expected costs.</div>
          <div class=\"subheading chart-heading\">Plan Costs</div>
          <div class=\"clearfix\">Insert Chart Here</div>",
        "displayType" : "Check Box",
        "widgetId" : null,
        "classOverride" : null ,
        "required" : true ,
        "answers" : 
        [
          {
            "answerId" : 1,
            "text" : "Yes, I have montly prescriptions",
            "summary" : "Si, tengo recetas mensual"
          }
        ]
      },
      {   
        "questionId" : 2,
        "categoryRefId" : 1,
        "navText" : "Deductible", 
        "text" : "How much are you willing to pay each year (annual deductible) before your benefits kick in?",
        "educationalContentBlock" :
          "<div class=\"subheading info\">What does this mean?</div>
          <div class=\"instructions\">Plans with a lower monthly cost save you money up front by asking you to share a greater percentage (coinsurance) of the medical costs later.</div>",
        "displayType" : "Slider",
        "widgetId" : null,
        "classOverride" : null ,
        "required" : true ,
        "filterRefId" : "Deduct_Single_Filter",
        "answers" : 
        [
          {
            "answerId" : "1500_less",
            "text" : "$1,500 or Less",
            "summary" : "$1,500 or Less"
          },
          {
            "answerId": "1500_3500",
            "text": "$1,500 to $3,500",
            "summary": "$1,500 to $3,500"
          },
          {
            "answerId": "3500_5000",
            "text": "$3,500 to $5,000",
            "summary": "$3,500 to $5,000"
          },
          {
            "answerId": "5000_More",
            "text": "More than $5,000",
            "summary": "More than $5,000"
          }
        ]
      },
      {   
        "questionId" : 3,
        "categoryRefId" : 0,
        "navText" : "Allergies", 
        "text" : "Do you have any allergies?",
        "educationalContentBlock" : 
          "<div class=\"subheading info\">What does this do for me?</div>
          <div class=\"instructions\">If treating allergies is an ongoing part of your life, having a plan that accounts for numerous doctor visits by providing you with low co-pays is important.</div>
          <div class=\"subheading chart-heading\">Co-pay or HSA</div>
          <div class=\"clearfix\">Insert Chart Here</div>",
        "displayType" : "Check Box",
        "widgetId" : null,
        "classOverride" : null ,
        "required" : true ,
        "answers" : 
        [
          {
            "answerId" : 1,
            "text" : "Yes",
            "summary" : "Si"
          }
        ]
      },
      {   
        "questionId" : 4,
        "categoryRefId" : 1,
        "navText" : "Plan Types", 
        "text" : "Which plan types interest you?  You may choose as many as you like from the following:",
        "educationalContentBlock" : 
          "<div class=\"subheading info\">What does this do for me?</div>
          <div class=\"instructions\">Picking plan type preferences helps us present only plans that will interest you.</div>
          <div class=\"subheading chart-heading\">Plans by Type</div>
          <div class=\"clearfix\">Insert Chart Here</div>",
        "displayType" : "Check Box",
        "widgetId" : null,
        "classOverride" : null ,
        "required" : true ,
        "minimumAnswers" : 1 ,
        "maximumAnswers" : 3 ,
        "answers" : [
          {
            "answerId" : 0,
            "text" : "Co-Pay",
            "summary" : "Co-Pay"
          },
          {
            "answerId" : 1,
            "text" : "HSA low deductible",
            "summary" : "HSA Low"
          },
          {
            "answerId" : 2,
            "text" : "HSA high deductible",
            "summary" : "HSA High"
          },
          {
            "answerId" : 3,
            "text" : "Medicare",
            "summary" : "Medicare"
          }
        ]
      }
    ],
    "planEvaluations": [ {
			'questionRefId' : '0',
			'questionWeight' : '11',
			'questionType' : 'Scoring',
			'answers' : [ {
				'answerRefId' : '0',
				'productRefs' : [ {
					'productId' : '8155',
					'score' : 1,
					'match' : null
				}, {
					'productId' : '8156',
					'score' : 2,
					'match' : null
				}, {
					'productId' : '8159',
					'score' : 3,
					'match' : null
				} ]
			}, {
				'answerRefId' : '1',
				'productRefs' : [ {
					'productId' : '8155',
					'score' : 11,
					'match' : null
				}, {
					'productId' : '8156',
					'score' : 22,
					'match' : null
				}, {
					'productId' : '8159',
					'score' : 44,
					'match' : null
				} ]
			} ]
		}, {
			'questionRefId' : '1',
			'questionWeight' : '22',
			'questionType' : 'Scoring',
			'answers' : [ {
				'answerRefId' : '0',
				'productRefs' : [ {
					'productId' : '8155',
					'score' : 1,
					'match' : null
				}, {
					'productId' : '8156',
					'score' : 2,
					'match' : null
				}, {
					'productId' : '8159',
					'score' : 3,
					'match' : null
				} ]
			}, {
				'answerRefId' : '1',
				'productRefs' : [ {
					'productId' : '8155',
					'score' : 11,
					'match' : null
				}, {
					'productId' : '8156',
					'score' : 22,
					'match' : null
				}, {
					'productId' : '8159',
					'score' : 3,
					'match' : null
				} ]
			} ]
		}, {
			'questionRefId' : '2',
			'questionWeight' : '33',
			'questionType' : 'Scoring',
			'answers' : [ {
				'answerRefId' : '1500_less',
				'productRefs' : [ {
					'productId' : '8155',
					'score' : 1,
					'match' : true
				}, {
					'productId' : '8156',
					'score' : 2,
					'match' : true
				}, {
					'productId' : '8159',
					'score' : 3,
					'match' : false
				} ]
			}, {
				'answerRefId' : '1500_3500',
				'productRefs' : [ {
					'productId' : '8155',
					'score' : 1,
					'match' : true
				}, {
					'productId' : '8156',
					'score' : 2,
					'match' : false
				}, {
					'productId' : '8159',
					'score' : 3,
					'match' : true
				} ]
			}, {
				'answerRefId' : '3500_5000',
				'productRefs' : [ {
					'productId' : '8155',
					'score' : 1,
					'match' : false
				}, {
					'productId' : '8156',
					'score' : 8,
					'match' : false
				}, {
					'productId' : '8159',
					'score' : 3,
					'match' : true
				} ]
			}, {
				'answerRefId' : '5000_More',
				'productRefs' : [ {
					'productId' : '8155',
					'score' : 1,
					'match' : false
				}, {
					'productId' : '8156',
					'score' : 2,
					'match' : false
				}, {
					'productId' : '8159',
					'score' : 3,
					'match' : true
				} ]
			} ]
		} ],
    "filters": [
    {
      "filterId": "Deductible_Filter",
      "title": "Deductible",
      "evaluationType": "Data Tag",
      "displayType": "Slider",
      "helpText": null,
      "helpType": null,
      "dataTagKey": "BNFT_DED.In_Network",
      "classOverride": null,
      "options": [
      	{
          "optionId": "No_Filter",
          "text": "No Filter",
          "helpText": null,
          "helpType": null,
          "dataTagValue": "",
          "dataTagOperator": "",
          "classOverride": null
        },
        {
          "optionId": "1500_less",
          "text": "$1,500 or Less",
          "helpText": null,
          "helpType": null,
          "dataTagValue": "1500",
          "dataTagOperator": "Less Than",
          "classOverride": null
        },
        {
          "optionId": "1500_3500",
          "text": "$1,500 to $3,500",
          "helpText": null,
          "helpType": null,
          "dataTagValue": "1500|3500",
          "dataTagOperator": "In Between",
          "classOverride": null
        },
        {
          "optionId": "3500_5000",
          "text": "$3,500 to $5,000",
          "helpText": null,
          "helpType": null,
          "dataTagValue": "3500|5000",
          "dataTagOperator": "In Between",
          "classOverride": null
        },
        {
          "optionId": "5000_More",
          "text": "More than $5,000",
          "helpText": null,
          "helpType": null,
          "dataTagValue": "5000",
          "dataTagOperator": "Greater Than",
          "classOverride": null
        }
      ]
    },
    {
      "filterId": "HSA_Filter",
      "title": "HSA",
      "evaluationType": "Configuration Tag",
      "displayType": "Checkbox",
      "helpText": null,
      "helpType": null,
      "dataTagKey": null,
      "classOverride": null,
      "options": [
        {
          "optionId": "OPT_Yes",
          "text": "Yes",
          "helpText": null,
          "helpType": null,
          "dataTagValue": null,
          "dataTagOperator": null,
          "classOverride": null
        },
        {
          "optionId": "OPT_No",
          "text": "No",
          "helpText": null,
          "helpType": null,
          "dataTagValue": null,
          "dataTagOperator": null,
          "classOverride": null
        }
      ]
    },
    {
      "filterId": "Special_Filter",
      "title": "Special",
      "evaluationType": "Configuration Tag",
      "displayType": "Checkbox",
      "helpText": null,
      "helpType": null,
      "dataTagKey": null,
      "classOverride": null,
      "options": [
        {
          "optionId": "OPT_Special_Red",
          "text": "Red",
          "helpText": null,
          "helpType": null,
          "dataTagValue": null,
          "dataTagOperator": null,
          "classOverride": null
        },
        {
          "optionId": "OPT_Special_Blue",
          "text": "Blue",
          "helpText": null,
          "helpType": null,
          "dataTagValue": null,
          "dataTagOperator": null,
          "classOverride": null
        },
        {
          "optionId": "OPT_Special_Green",
          "text": "Green",
          "helpText": null,
          "helpType": null,
          "dataTagValue": null,
          "dataTagOperator": null,
          "classOverride": null
        }
      ]
    }
    ],
    "filterEvaluations": [
    {
      "filterRefId": "HSA_Filter",
      "options": [
        {
          "optionRefId": "OPT_Yes",
          "planIds": [
            "HSA2500",
            "8155",
            "8159" 
          ]
        },
        {
          "optionRefId": "OPT_No",
          "planIds": [
            "ELITE500",
            "8156"
          ]
        }
      ]
    },
    {
      "filterRefId": "Special_Filter",
      "options": [
        {
          "optionRefId": "OPT_Special_Red",
          "planIds": [
            "8159" 
          ]
        },
        {
          "optionRefId": "OPT_Special_Blue",
          "planIds": [
            "8155"
          ]
        },
        {
          "optionRefId": "OPT_Special_Green",
          "planIds": [
            "8156",
            "8155"
          ]
        }
      ]
    }
    ]
  }