-------------------------------------------------------------------------------
Test set: com.connecture.shopping.process.work.core.ApplicationConfigWorkTest
-------------------------------------------------------------------------------
Tests run: 7, Failures: 0, Errors: 0, Skipped: 0, Time elapsed: 0.01 sec
