-------------------------------------------------------------------------------
Test set: com.connecture.shopping.process.service.data.converter.FrequencyCodeTest
-------------------------------------------------------------------------------
Tests run: 1, Failures: 0, Errors: 0, Skipped: 0, Time elapsed: 0 sec
