-------------------------------------------------------------------------------
Test set: com.connecture.shopping.process.common.ShoppingDateConverterTest
-------------------------------------------------------------------------------
Tests run: 2, Failures: 0, Errors: 0, Skipped: 0, Time elapsed: 0.016 sec
