-------------------------------------------------------------------------------
Test set: com.connecture.shopping.process.common.account.conversion.json.JSONPathAddActionTest
-------------------------------------------------------------------------------
Tests run: 2, Failures: 0, Errors: 0, Skipped: 0, Time elapsed: 0 sec
