com\connecture\shopping\process\work\WorkProviderImpl.class
com\connecture\shopping\process\service\data\DemographicsConfigFieldOptionData.class
com\connecture\shopping\process\service\data\demographicsForm\DemographicsFormValidationErrorConfig.class
com\connecture\shopping\process\common\account\conversion\converter\AVPConverterType.class
com\connecture\shopping\process\service\data\UsageCategory.class
com\connecture\shopping\process\service\data\EnrollmentEventApplication.class
com\connecture\shopping\process\service\data\converter\ProducerDemographicsDataConverter.class
com\connecture\shopping\process\common\account\conversion\AccountInfoDataProvider.class
com\connecture\shopping\process\work\WorkConstants.class
com\connecture\shopping\process\service\data\converter\FrequencyCode.class
com\connecture\shopping\process\camel\request\ProducerDemographicsDataRequest.class
com\connecture\shopping\process\common\account\conversion\config\AVPConfigChain.class
com\connecture\shopping\process\service\data\EnrollmentEventDomainModel.class
com\connecture\shopping\process\service\data\demographicsForm\DemographicsFormMemberField.class
com\connecture\shopping\process\common\account\conversion\config\AVPConfigUtils.class
com\connecture\shopping\process\work\core\CostEstimatorWork.class
com\connecture\shopping\process\common\account\conversion\json\JSONPathRemoveAction.class
com\connecture\shopping\process\service\data\DemographicsConfigData.class
com\connecture\shopping\process\message\MessageRecipient.class
com\connecture\shopping\process\camel\logging\LogFormatter.class
com\connecture\shopping\process\common\account\Account.class
com\connecture\shopping\process\work\core\RulesEngineBean.class
com\connecture\shopping\process\service\data\converter\EnrollmentEventRulesEngineDataConverter.class
com\connecture\shopping\process\service\data\EnrollmentEventData.class
com\connecture\shopping\process\common\JSONUtils.class
com\connecture\shopping\process\service\data\converter\ProductDataConverterUtil.class
com\connecture\shopping\process\common\JSONObjectUserType.class
com\connecture\shopping\process\message\PlanEmailConverterUtils.class
com\connecture\shopping\process\service\data\ConsumerDemographicsData.class
com\connecture\shopping\process\service\stub\RatingPlanDataServiceStub.class
com\connecture\shopping\process\work\individual\IFPConsumerDemographicsWork.class
com\connecture\shopping\process\camel\request\transformers\ListToCSVConverter.class
com\connecture\shopping\process\common\account\conversion\AccountInfoDataStore.class
com\connecture\shopping\process\common\account\conversion\AVPAccountInfoDBDataProvider.class
com\connecture\shopping\process\work\RequestType.class
com\connecture\shopping\process\work\individual\provider\IFPCostEstimatorSettingsDataProvider.class
com\connecture\shopping\process\service\data\ProductData.class
com\connecture\shopping\process\camel\request\APTCRulesEngineDataRequest.class
com\connecture\shopping\process\common\account\conversion\converter\AVPAddConverter.class
com\connecture\shopping\process\UnauthorizedException.class
com\connecture\shopping\process\work\core\ConsumerDemographicsWork.class
com\connecture\shopping\process\camel\request\CamelRequest.class
com\connecture\shopping\process\service\data\DemographicsConfigRuleResultData.class
com\connecture\shopping\process\work\context\ContextWorkFactory.class
com\connecture\shopping\process\camel\request\StateKeyForCountyAndZipCodeDataRequest.class
com\connecture\shopping\process\work\core\EnrollmentEventEffectiveDateWorkHelper.class
com\connecture\shopping\process\work\individual\IFPPovertyIncomeLevelWork.class
com\connecture\shopping\process\work\employee\SGCostEstimatorCostsWork.class
com\connecture\shopping\process\service\data\converter\ShoppingRulesEngineDataConverter.class
com\connecture\shopping\process\message\PlanEmailEstimatedCostBean.class
com\connecture\shopping\process\work\context\ContextWorkFactoryImpl.class
com\connecture\shopping\process\service\data\converter\ProductDataConverter.class
com\connecture\shopping\process\work\CamelRequestingDataProvider.class
com\connecture\shopping\process\service\data\demographicsForm\DemographicsFormFieldOption$1.class
com\connecture\shopping\process\work\individual\IFPApplicationConfigWork.class
com\connecture\shopping\process\service\stub\ProviderSearchServiceStub.class
com\connecture\shopping\process\work\core\provider\ApplicationConfigWorkProvider.class
com\connecture\shopping\process\service\data\DemographicsConfigConstants$ConfigFieldKey.class
com\connecture\shopping\process\work\core\CostEstimatorCostsWork.class
com\connecture\shopping\process\work\core\provider\ActorWorkProvider.class
com\connecture\shopping\process\work\individual\IFPSpecialEnrollmentEffectiveDateWork.class
com\connecture\shopping\process\ForbiddenException.class
com\connecture\shopping\process\work\core\ProductPlanWork.class
com\connecture\shopping\process\integration\ShoppingIndividualIntegrationProcess.class
com\connecture\shopping\process\common\account\conversion\json\JSONSupport.class
com\connecture\shopping\process\service\stub\ProductServiceStub.class
com\connecture\shopping\process\message\PlanEmailBenefitBean.class
com\connecture\shopping\process\service\data\demographicsForm\DemographicsFormField.class
com\connecture\shopping\process\service\data\ConsumerUsage.class
com\connecture\shopping\process\common\account\conversion\json\JSONPathObjectToArrayAction.class
com\connecture\shopping\process\work\core\ActorWork.class
com\connecture\shopping\process\work\core\ProductLinesWork$1.class
com\connecture\shopping\process\service\plan\data\CustomAttributeData.class
com\connecture\shopping\process\service\plan\data\PlanBenefitValueData.class
com\connecture\shopping\process\service\plan\data\PlanContributionData.class
com\connecture\shopping\process\service\data\aptc\converter\APTCDomainConverterUtils.class
com\connecture\shopping\process\DataConversionException.class
com\connecture\shopping\process\service\data\demographicsForm\DemographicsFormFieldOption.class
com\connecture\shopping\process\work\individual\IFPCostEstimatorCostsWork.class
com\connecture\shopping\process\work\Work.class
com\connecture\shopping\process\common\account\conversion\converter\AVPDeleteConverter.class
com\connecture\shopping\process\camel\request\RatingProductDataRequest.class
com\connecture\shopping\process\camel\request\IAToShoppingQuotePlanDataRequest.class
com\connecture\shopping\process\common\account\conversion\converter\AVPRenameConverterUtil.class
com\connecture\shopping\process\service\data\NameData.class
com\connecture\shopping\process\service\data\Benefit.class
com\connecture\shopping\process\service\data\ProviderData.class
com\connecture\shopping\process\work\core\ValidZipCodeCountyWork.class
com\connecture\shopping\process\common\account\conversion\converter\AVPConverterImpl.class
com\connecture\shopping\process\common\account\conversion\json\JSONPathAddAction.class
com\connecture\shopping\process\camel\request\IAShoppingAnonymousEnrollmentDataRequest.class
com\connecture\shopping\process\service\ActorService.class
com\connecture\shopping\process\service\data\availability\Availability.class
com\connecture\shopping\process\service\data\cache\DataCache.class
com\connecture\shopping\process\common\scope\ThreadScopeHibernateInterceptor.class
com\connecture\shopping\process\service\data\EnrollmentEvent.class
com\connecture\shopping\process\service\data\Request.class
com\connecture\shopping\process\service\data\DemographicsConfigConstants.class
com\connecture\shopping\process\IntegrationException.class
com\connecture\shopping\process\common\HibernateOverridePropsFactoryBean.class
com\connecture\shopping\process\camel\request\EnrollmentEventRulesEngineDataRequest.class
com\connecture\shopping\process\camel\request\ValidateZipCodeRequest.class
com\connecture\shopping\process\common\Environment$PageComponents.class
com\connecture\shopping\process\common\account\conversion\json\JSONPathAction$PathState.class
com\connecture\shopping\process\camel\logging\LogComponent.class
com\connecture\shopping\process\common\account\conversion\json\JSONPathAction.class
com\connecture\shopping\process\common\JSONFileUtils.class
com\connecture\shopping\process\common\account\conversion\converter\AVPObjectToArrayConverter.class
com\connecture\shopping\process\service\data\PlanAdvisorDataConstants$PlanEvaulationType.class
com\connecture\shopping\process\service\data\WorkflowData.class
com\connecture\shopping\process\work\core\ShoppingRulesEngineBean.class
com\connecture\shopping\process\service\data\GenderData.class
com\connecture\shopping\process\common\account\conversion\json\JSONPathBulkAddAction.class
com\connecture\shopping\process\work\core\AccountWork.class
com\connecture\shopping\process\work\core\ProviderSearchWork.class
com\connecture\shopping\process\work\individual\IndividualAccountWork.class
com\connecture\shopping\process\service\data\DataConverter.class
com\connecture\shopping\process\common\account\conversion\converter\AVPConverter.class
com\connecture\shopping\process\camel\request\IAToShoppingIndividualDataRequest.class
com\connecture\shopping\process\work\core\EnrollmentEventRuleEngineHelper.class
com\connecture\shopping\process\common\account\conversion\json\JSONPathAction$JSONPathCountAction.class
com\connecture\shopping\process\service\data\ConsumerProfile.class
com\connecture\shopping\process\common\LocaleUserType.class
com\connecture\shopping\process\service\data\ConsumerData.class
com\connecture\shopping\process\service\data\ConsumerPlanData.class
com\connecture\shopping\process\service\data\Attribute.class
com\connecture\shopping\process\service\data\AttributeConsumer.class
com\connecture\shopping\process\service\stub\ConsumerDemographicsClientStub.class
com\connecture\shopping\process\work\core\ProductLinesWork.class
com\connecture\shopping\process\message\PlanEmailProviderBean.class
com\connecture\shopping\process\service\data\Property.class
com\connecture\shopping\process\service\data\aptc\converter\APTCDomainPlanConverterUtils.class
com\connecture\shopping\process\work\core\provider\ConsumerDemographicsWorkProvider.class
com\connecture\shopping\process\service\stub\ConsumerProductsServiceStub.class
com\connecture\shopping\process\service\data\EmployeeData.class
com\connecture\shopping\process\service\data\DemographicsConfigFieldOptionData$1.class
com\connecture\shopping\process\integration\ShoppingToIADataExtn.class
com\connecture\shopping\process\message\MessageUtils.class
com\connecture\shopping\process\work\core\ApplicationConfigWork.class
com\connecture\shopping\process\work\core\provider\RulesEngineWorkProvider.class
com\connecture\shopping\process\common\account\conversion\converter\AVPDeleteConverterUtil.class
com\connecture\shopping\process\work\core\EnrollmentEventRulesEngineBean.class
com\connecture\shopping\process\common\account\conversion\AccountVersioningProcess.class
com\connecture\shopping\process\service\data\PlanAdvisorDataConstants$DisplayType.class
com\connecture\shopping\process\common\account\conversion\converter\AVPConverterUtils.class
com\connecture\shopping\process\work\core\provider\CostEstimatorWorkProvider.class
com\connecture\shopping\process\service\data\PlanEvaluationProductData.class
com\connecture\shopping\process\camel\request\LeadGenerationRequest.class
com\connecture\shopping\process\service\stub\ActorServiceStub.class
com\connecture\shopping\process\service\data\PlanData.class
com\connecture\shopping\process\work\individual\QuoteWork.class
com\connecture\shopping\process\service\data\PlanRiderData.class
com\connecture\shopping\process\camel\request\RulesEngineDataRequest.class
com\connecture\shopping\process\service\data\demographicsForm\DemographicsFormFieldMask.class
com\connecture\shopping\process\common\account\conversion\converter\AVPAddConverterUtil.class
com\connecture\shopping\process\service\plan\data\PlanBenefitValueTypeGroupData.class
com\connecture\shopping\process\common\account\conversion\AVPAccountInfoDBDataStore.class
com\connecture\shopping\process\service\data\FilterData.class
com\connecture\shopping\process\service\data\FilterOptionData.class
com\connecture\shopping\process\work\individual\SubsidyUsageWork.class
com\connecture\shopping\process\service\data\QuestionnaireData.class
com\connecture\shopping\process\work\individual\provider\RatingPlanWorkProvider.class
com\connecture\shopping\process\work\core\provider\AuxShoppingConfigDataProvider.class
com\connecture\shopping\process\ShoppingIntegrationProcess.class
com\connecture\shopping\process\service\data\demographicsForm\DemographicsFormValidationError.class
com\connecture\shopping\process\initialization\ShoppingInitializationHelper.class
com\connecture\shopping\process\service\data\PlanAPTCData.class
com\connecture\shopping\process\work\individual\provider\IFPPovertyIncomeLevelDataProvider.class
com\connecture\shopping\process\work\individual\provider\QuoteWorkProvider.class
com\connecture\shopping\process\service\data\cache\ShoppingDataProviderKey.class
com\connecture\shopping\process\service\data\FilterQuestionReferenceData.class
com\connecture\shopping\process\service\data\converter\ConsumerProductsDataConverter.class
com\connecture\shopping\process\service\data\ProviderType.class
com\connecture\shopping\process\service\data\converter\ProviderSearchDataConverter.class
com\connecture\shopping\process\service\stub\IndividualDataServiceStub.class
com\connecture\shopping\process\work\employee\provider\ConsumerEligibilityWorkProvider.class
com\connecture\shopping\process\common\account\conversion\json\JSONPathBulkRemoveAction.class
com\connecture\shopping\process\common\SystemPropertyFactoryBean.class
com\connecture\shopping\process\camel\request\IACreateAccountRequest.class
com\connecture\shopping\process\common\account\SessionAccountImpl.class
com\connecture\shopping\process\work\WorkConstants$Method.class
com\connecture\shopping\process\work\anonymous\AnonymousApplicationConfigWork.class
com\connecture\shopping\process\service\data\cache\DataProvider.class
com\connecture\shopping\process\work\WorkImpl.class
com\connecture\shopping\process\work\individual\DemographicsValidationWork.class
com\connecture\shopping\process\service\data\converter\PlanAdvisorDataConverter.class
com\connecture\shopping\process\service\data\demographicsForm\DemographicsForm.class
com\connecture\shopping\process\common\account\conversion\config\AVPConfig.class
com\connecture\shopping\process\camel\request\transformers\SpaceToPlusConverter.class
com\connecture\shopping\process\service\data\availability\AvailabilityProductBenefit.class
com\connecture\shopping\process\service\data\AnswerData.class
com\connecture\shopping\process\work\core\RulesEngineWork.class
com\connecture\shopping\process\domain\AccountInfo.class
com\connecture\shopping\process\common\scope\ThreadScopeRunnable.class
com\connecture\shopping\process\service\data\DemographicsConfigFieldMaskData.class
com\connecture\shopping\process\camel\request\ProductDataRequest.class
com\connecture\shopping\process\common\scope\ThreadScopeContextHolder.class
com\connecture\shopping\process\camel\request\CamelRequestParameters.class
com\connecture\shopping\process\common\AutoCreateTxSessionContext.class
com\connecture\shopping\process\service\stub\ConsumerDemographicsServiceStub.class
com\connecture\shopping\process\work\individual\provider\IFPProductAvailabilityWorkProvider.class
com\connecture\shopping\process\service\data\converter\ConsumerDemographicsDataConverter.class
com\connecture\shopping\process\message\PlanEmailPreferenceMatch.class
com\connecture\shopping\process\work\GetWorker.class
com\connecture\shopping\process\service\data\availability\AvailabilityProduct.class
com\connecture\shopping\process\work\context\EmployeeWorkFactory.class
com\connecture\shopping\process\service\data\Consumer.class
com\connecture\shopping\process\work\individual\provider\IFPSpecialEnrollmentEventDateValidationWorkProvider.class
com\connecture\shopping\process\work\core\provider\ProviderSearchWorkProvider.class
com\connecture\shopping\process\domain\PageComponentInfo.class
com\connecture\shopping\process\service\plan\data\PlanBenefitDataComparator.class
com\connecture\shopping\process\camel\request\ShoppingRulesEngineDataRequest.class
com\connecture\shopping\process\service\data\MemberEligibilityData.class
com\connecture\shopping\process\service\data\demographicsForm\DemographicsFormField$1.class
com\connecture\shopping\process\service\data\ShoppingDomainModel.class
com\connecture\shopping\process\service\data\SpecialEnrollmentEvent.class
com\connecture\shopping\process\work\context\AnonymousWorkFactory.class
com\connecture\shopping\process\work\employee\ConsumerEligibilityWork.class
com\connecture\shopping\process\common\account\conversion\converter\AVPObjectToArrayConverterUtil.class
com\connecture\shopping\process\common\scope\ThreadScopeAttributes.class
com\connecture\shopping\process\work\context\IndividualWorkFactory.class
com\connecture\shopping\process\work\employee\SGConsumerDemographicsWork.class
com\connecture\shopping\process\service\data\PlanAdvisorDataConstants$Operators.class
com\connecture\shopping\process\service\stub\ProducerDemographicsDataServiceStub.class
com\connecture\shopping\process\work\individual\RatingPlanWork$RatingMemberModel.class
com\connecture\shopping\process\work\core\provider\ValidZipCodeCountyWorkProvider.class
com\connecture\shopping\process\service\data\SpecialEnrollmentData.class
com\connecture\shopping\process\common\account\conversion\json\JSONValidationUtils.class
com\connecture\shopping\process\common\account\conversion\AccountVersioningConverterDataProvider.class
com\connecture\shopping\process\service\stub\ConsumerProductsClientStub.class
com\connecture\shopping\process\service\data\AttributeProperty.class
com\connecture\shopping\process\common\scope\ThreadScope.class
com\connecture\shopping\process\service\plan\data\PlanBenefitCategoryDataComparator.class
com\connecture\shopping\process\message\PlanEmailBenefitCategoryBean.class
com\connecture\shopping\process\work\context\ContextFactory.class
com\connecture\shopping\process\initialization\SpringTransShoppingInit.class
com\connecture\shopping\process\common\Environment.class
com\connecture\shopping\process\common\account\PersistedAccountImpl.class
com\connecture\shopping\process\work\core\provider\CostEstimatorSettingsDataProvider.class
com\connecture\shopping\process\camel\request\ConsumerDemographicsDataRequest.class
com\connecture\shopping\process\common\ShoppingDateUtils.class
com\connecture\shopping\process\service\data\DemographicsConfigFieldData$1.class
com\connecture\shopping\process\common\ShoppingDateConverter.class
com\connecture\shopping\process\work\core\EnrollmentEventEnrollmentDateWorkHelper.class
com\connecture\shopping\process\service\data\UsageData.class
com\connecture\shopping\process\work\core\provider\AccountWorkProvider.class
com\connecture\shopping\process\work\employee\provider\SGCostEstimatorSettingsDataProvider.class
com\connecture\shopping\process\camel\request\PlanAdvisorConfigRequest.class
com\connecture\shopping\process\work\context\ContextFactory$1.class
com\connecture\shopping\process\work\individual\provider\IFPPovertyIncomeLevelWorkProvider.class
com\connecture\shopping\process\service\data\converter\IFPRatedProductDataConverter.class
com\connecture\shopping\process\service\data\ProvidersData.class
com\connecture\shopping\process\service\data\ProductLineData.class
com\connecture\shopping\process\common\account\UserAccount.class
com\connecture\shopping\process\service\data\QuestionData.class
com\connecture\shopping\process\service\plan\data\PlanBenefitCategoryData.class
com\connecture\shopping\process\service\data\PlanEvaluationData.class
com\connecture\shopping\process\work\individual\IFPActorWork.class
com\connecture\shopping\process\service\data\availability\converter\AvailabilityProductConverterUtils.class
com\connecture\shopping\process\service\data\MemberData.class
com\connecture\shopping\process\work\core\provider\ProductLinesWorkProvider.class
com\connecture\shopping\process\service\data\converter\ConsumerDataConverterUtil.class
com\connecture\shopping\process\service\data\EmployerData.class
com\connecture\shopping\process\service\data\ProductPlanData.class
com\connecture\shopping\process\service\data\demographicsForm\DemographicsFormMember.class
com\connecture\shopping\process\common\PageComponentProcess.class
com\connecture\shopping\process\service\data\DemographicsConfigFieldData.class
com\connecture\shopping\process\camel\request\BaseCamelRequest.class
com\connecture\shopping\process\service\data\PlanAdvisorDataConstants.class
com\connecture\shopping\process\service\data\Product.class
com\connecture\shopping\process\service\data\ProductConsumer.class
com\connecture\shopping\process\common\account\conversion\ShoppingAccountVersioningInitialization.class
com\connecture\shopping\process\common\scope\ThreadScopeContextHolder$1.class
com\connecture\shopping\process\camel\request\ConsumerTierDataRequest.class
com\connecture\shopping\process\service\data\converter\RatingPlanDataConverter.class
com\connecture\shopping\process\integration\ShoppingToIAMemberDetailsExtn.class
com\connecture\shopping\process\service\stub\RulesEngineServiceStub.class
com\connecture\shopping\process\service\plan\data\PlanBenefitData.class
com\connecture\shopping\process\work\core\EffectiveDateWorkHelper.class
com\connecture\shopping\process\work\individual\provider\DemographicsValidationWorkProvider.class
com\connecture\shopping\process\service\data\availability\AvailabilityProductLine.class
com\connecture\shopping\process\work\core\provider\CostEstimatorCostsWorkProvider.class
com\connecture\shopping\process\work\core\provider\ProductPlanWorkProvider.class
com\connecture\shopping\process\work\anonymous\AnonymousConsumerDemographicsWork.class
com\connecture\shopping\process\message\MessageProcess.class
com\connecture\shopping\process\service\data\Profile.class
com\connecture\shopping\process\camel\request\ProviderSearchDataRequest.class
com\connecture\shopping\process\work\individual\IFPSpecialEnrollmentEventDateValidationWork.class
com\connecture\shopping\process\work\individual\RatingPlanWork.class
com\connecture\shopping\process\common\account\conversion\converter\AVPRenameConverter.class
com\connecture\shopping\process\common\account\conversion\json\JSONPathUtil.class
com\connecture\shopping\process\camel\request\ActorDataRequest.class
com\connecture\shopping\process\camel\request\ValidZipCodeCountyDataRequest.class
com\connecture\shopping\process\work\employee\SGActorWork.class
com\connecture\shopping\process\service\data\cache\DataProviderKey.class
com\connecture\shopping\process\service\data\PlanAdvisorData.class
com\connecture\shopping\process\service\stub\PlanAdvisorServiceStub.class
com\connecture\shopping\process\camel\request\IAShoppingAccountDataRequest.class
com\connecture\shopping\process\work\core\EnrollmentEventDaysLeftToEnrollWorkHelper.class
com\connecture\shopping\process\work\individual\provider\IFPSpecialEnrollmentEffectiveDateWorkProvider.class
com\connecture\shopping\process\message\PlanEmailBean.class
com\connecture\shopping\process\message\MessageBean.class
com\connecture\shopping\process\service\data\RelationshipData.class
com\connecture\shopping\process\work\individual\IFPProductAvailabilityWork.class
com\connecture\shopping\process\work\individual\RatingPlanWork$1.class
com\connecture\shopping\process\work\individual\provider\SubsidyUsageWorkProvider.class
com\connecture\shopping\process\common\account\conversion\converter\AVPConverterUtil.class
com\connecture\shopping\process\service\data\FilterEvaluationData.class
com\connecture\shopping\process\work\core\RuleSetDataProviderKey.class
com\connecture\shopping\process\work\employee\ProductPlanDataWork.class
com\connecture\shopping\process\service\plan\data\PlanBenefitValueSetData.class
com\connecture\shopping\process\work\core\APTCRulesEngineBean.class
com\connecture\shopping\process\service\data\PlanEvaluationAnswerData.class
